<?xml version="1.0" encoding="iso-8859-1"?>
<!-- Generator: Adobe Illustrator 19.0.0, SVG Export Plug-In . SVG Version: 6.00 Build 0)  -->
<svg version="1.1" id="Layer_1" xmlns="http://www.w3.org/2000/svg" xmlns:xlink="http://www.w3.org/1999/xlink" x="0px" y="0px"
	 viewBox="0 0 290.62 290.62" style="enable-background:new 0 0 290.62 290.62;" xml:space="preserve" fill="white">
<g>
	<g>
		<g>
			<path d="M228.658,56.245C224.829,42.183,207.649,0,145.31,0S65.791,42.183,61.962,56.245h-1.027V271.87h3.248
				c22.908,16.209,59.897,18.75,80.569,18.75c0.188,0,0.384,0,0.572,0c28.092-0.07,64.542-8.578,80.981-18.75h3.38V56.245H228.658z
				 M145.31,9.37c53.503,0,69.469,33.68,73.697,47.034c-1.238,0.07-2.461,0.197-3.689,0.305
				c-1.505-15.178-10.809-21.506-18.333-23.306c-0.591-5.128-3.684-11.414-12.689-14.414c-7.819-2.611-13.767-1.566-17.897,0.652
				C163.395,14.348,157.123,9.37,145.31,9.37c-11.991,0-18.272,5.133-21.216,10.509c-4.678-2.756-11.152-4.247-18.38-0.642
				c-7.556,3.778-10.341,9.975-11.367,14.086c-3.253,0.862-6.098,2.78-8.367,5.667c-4.303,5.475-5.7,13.237-6.094,18.22
				c-2.728-0.361-5.484-0.642-8.273-0.797C75.832,43.064,91.793,9.37,145.31,9.37z M189.015,58.515
				c-2.714-2.245-6.197-5.109-10.894-6.342v-9.989h-9.375v10.35c-4.322,1.969-5.873,6.511-6.787,9.258
				c-1.327,3.984-1.744,3.863-2.705,3.825c-0.136-0.53-0.262-1.369-0.352-1.978c-0.366-2.438-0.984-6.502-4.214-9.239V32.808h-9.375
				v18.75c-10.683,0-13.931,6.727-15.872,10.739c-1.613,3.323-1.852,3.323-2.883,3.323c-1.031,0-1.308,0-2.588-3.825
				c-0.455-1.369-1.073-3.188-2.1-4.917v-0.633l-4.828-19.884l-9.094,2.269l3.253,13.017c-6.459,0.455-10.964,4.116-14.287,6.867
				c-0.741,0.614-1.528,1.256-2.208,1.744c-1.838-0.516-3.694-0.984-5.573-1.406c0.262-3.853,1.364-11.264,4.875-14.827
				c1.242-1.256,2.648-1.842,4.425-1.842h4.688v-4.688c0-0.066,0.08-6.52,6.783-9.867c7.238-3.614,12.37,2.625,12.909,3.319
				l8.433,11.17V28.12c0-0.384,0.159-9.375,14.063-9.375c13.125,0,14.016,7.866,14.063,9.375v19.856l8.883-17.76
				c0.033-0.061,2.977-5.7,13.073-2.339c6.947,2.32,6.558,7.191,6.291,8.564l-1.327,5.742h5.892c0.539,0,12.539,0.206,13.922,15.736
				c-4.669,0.825-9.253,1.973-13.739,3.394l0.009-0.361C191.748,60.783,190.107,59.419,189.015,58.515z M135.935,74.995v7.434
				c-3.084-2.658-6.305-5.161-9.675-7.463c0.108,0,0.192,0.028,0.3,0.028c7.153,0,9.661-5.184,11.32-8.62
				c1.748-3.619,2.63-5.442,7.43-5.442c3.703,0,3.764,0.389,4.317,4.102c0.45,2.981,1.491,9.961,9.745,9.961
				c8.067,0,10.284-6.661,11.475-10.238c1.28-3.825,1.556-3.825,2.588-3.825c3.455,0,6.192,2.025,8.798,4.163
				c-13.888,6-26.488,14.911-36.923,26.363V74.995H135.935z M116.96,69.263c-3.755-2.044-7.659-3.839-11.662-5.428
				c2.142-1.603,4.444-2.902,7.2-2.902c1.031,0,1.307,0,2.587,3.825C115.507,66.019,116.069,67.664,116.96,69.263z M70.31,65.723
				c52.111,2.456,93.75,45.623,93.75,98.334c0,52.706-41.639,95.873-93.75,98.33V65.723z M111.917,261.408
				c12.679-6.056,24.004-14.513,33.37-24.783c3.112,3.422,6.422,6.614,9.9,9.577C143.304,263.593,124.259,263.677,111.917,261.408z
				 M162.602,251.967c6.014,4.275,12.431,7.898,19.158,10.842c-7.978,3.553-20.091,6.792-32.498,2.048
				C154.085,261.853,158.632,257.653,162.602,251.967z M145.301,281.245c-0.197,0-0.384,0-0.581,0
				c-25.397,0-47.536-3.759-63.333-10.538c5.466-0.806,10.8-2.011,15.97-3.609c2.981,1.144,13.294,4.72,25.65,4.72
				c4.866,0,10.031-0.572,15.169-2.067c8.189,5.044,16.43,6.9,24.042,6.9c14.063,0,25.889-6.136,31.322-9.487
				c4.43,1.35,8.948,2.447,13.552,3.22C190.601,276.277,166.648,281.194,145.301,281.245z M220.31,262.388
				c-26.54-1.252-51.281-13.121-68.958-33.052c13.837-18.136,22.083-40.758,22.083-65.278s-8.241-47.142-22.083-65.273
				c17.672-19.941,42.412-31.805,68.958-33.056V262.388z"/>
			<path d="M98.435,140.62v9.375c7.753,0,14.063-6.309,14.063-14.063c0-7.753-6.309-14.063-14.063-14.063
				s-14.063,6.309-14.063,14.063h9.375c0-2.588,2.1-4.688,4.688-4.688s4.688,2.1,4.688,4.688S101.023,140.62,98.435,140.62z"/>
			<path d="M201.56,121.87v-9.375c-5.17,0-9.375-4.205-9.375-9.375s4.205-9.375,9.375-9.375V84.37
				c-10.341,0-18.75,8.409-18.75,18.75S191.22,121.87,201.56,121.87z"/>
			<path d="M107.81,175.777v9.375c7.753,0,14.063,6.309,14.063,14.063c0,7.753-6.309,14.063-14.063,14.063v9.375
				c12.923,0,23.437-10.514,23.437-23.438C131.248,186.291,120.734,175.777,107.81,175.777z"/>
			<path d="M154.685,145.308c0-7.753-6.309-14.063-14.063-14.063v9.375c2.588,0,4.688,2.1,4.688,4.688s-2.1,4.688-4.688,4.688v9.375
				C148.376,159.37,154.685,153.061,154.685,145.308z"/>
			<path d="M196.873,239.058c10.341,0,18.75-8.409,18.75-18.75h-9.375c0,5.17-4.205,9.375-9.375,9.375
				c-5.17,0-9.375-4.205-9.375-9.375s4.205-9.375,9.375-9.375v-9.375c-10.341,0-18.75,8.409-18.75,18.75
				S186.532,239.058,196.873,239.058z"/>
			<path d="M196.873,178.12v-9.375c-2.587,0-4.688-2.1-4.688-4.688c0-2.588,2.1-4.688,4.688-4.688c2.587,0,4.688,2.1,4.688,4.688
				h9.375c0-7.753-6.309-14.063-14.063-14.063c-7.753,0-14.063,6.309-14.063,14.063C182.81,171.811,189.12,178.12,196.873,178.12z"
				/>
			<path d="M93.748,103.12c7.753,0,14.063-6.309,14.063-14.063h-9.375c0,2.587-2.1,4.688-4.688,4.688s-4.688-2.1-4.688-4.688h-9.375
				C79.685,96.811,85.995,103.12,93.748,103.12z"/>
			<rect x="79.685" y="168.745" width="9.375" height="42.188"/>
			<rect x="79.685" y="220.308" width="9.375" height="9.375"/>
			<rect x="79.685" y="239.058" width="9.375" height="9.375"/>
		</g>
	</g>
</g>
<g>
</g>
<g>
</g>
<g>
</g>
<g>
</g>
<g>
</g>
<g>
</g>
<g>
</g>
<g>
</g>
<g>
</g>
<g>
</g>
<g>
</g>
<g>
</g>
<g>
</g>
<g>
</g>
<g>
</g>
</svg>
